Linux : 
a : 5
b : cd /home/documents/collections/timbre

ARBRE BINAIRE
a : 7
b : 3
c : 10 - 3 - 2 - 12 - 13 - 11
d : 2 - 5 -3 - 13 - 11 - 12 - 10
e : 2 - 3 - 5 - 10 - 13 - 12 - 11
f : 10 - 3 - 12 - 2 - 5 - 13 - 11

Lan 
1 : IP a Bob car l'adresse hote commence par 172.16.2
2 :

SQL
1 :
	1 : idgrp : int
	2 : nom : txt
	3 : style : txt
	4 nb_pers : int

2: l'attribut "nom" n'est pas une clée primaire car
il n'est pas utilisé dans une autre table

3: vas renvoyer tout les nom des groupe avec un
 style latin jazz

4 :   UPDATE concerts
	SET heure_fin = '22h00'
	WHERE idonc = 36

5 : SELECT groupes.nom
FROM groupes
INNER JOIN concerts ON groupes.idgrp = concerts.idgrp
INNER JOIN scenes ON concerts.scene = scenes.idscn
WHERE scenes.idscn = 1;

6 : INSERT INTO groupes (idgrp, nom, style, nb_pers)
VALUES (15, 'Smooth Jazz Fourplay', 'Free Jazz', 4);